effect plain_texture_cube.fx

pass
{
	diffuseTexture	blackMarble.tga
	cubeTexture		chessCube.tga chessCube2.tga chessCube.tga chessCube2.tga chessCube2.tga chessCube2.tga
	;right, left, bottom, top, back, front
	vertexformat	position | uvcoord1 | colour | normal
	overbright		1.0
}