EESchema Schematic File Version 2
LIBS:power
LIBS:device
LIBS:transistors
LIBS:conn
LIBS:linear
LIBS:regul
LIBS:74xx
LIBS:cmos4000
LIBS:adc-dac
LIBS:memory
LIBS:xilinx
LIBS:microcontrollers
LIBS:dsp
LIBS:microchip
LIBS:analog_switches
LIBS:motorola
LIBS:texas
LIBS:intel
LIBS:audio
LIBS:interface
LIBS:digital-audio
LIBS:philips
LIBS:display
LIBS:cypress
LIBS:siliconi
LIBS:opto
LIBS:atmel
LIBS:contrib
LIBS:valves
LIBS:rfp30n06
LIBS:fqp27p06
LIBS:steppermotor
LIBS:Arduino_Nano
LIBS:cnc-cache
EELAYER 25 0
EELAYER END
$Descr A4 11693 8268
encoding utf-8
Sheet 1 1
Title ""
Date ""
Rev ""
Comp ""
Comment1 ""
Comment2 ""
Comment3 ""
Comment4 ""
$EndDescr
$Comp
L R R2
U 1 1 57EF8317
P 5750 3500
F 0 "R2" V 5830 3500 50  0000 C CNN
F 1 "10kR" V 5750 3500 50  0000 C CNN
F 2 "Resistors_ThroughHole:Resistor_Horizontal_RM7mm" V 5680 3500 50  0001 C CNN
F 3 "" H 5750 3500 50  0000 C CNN
	1    5750 3500
	0    1    1    0   
$EndComp
$Comp
L GND #PWR01
U 1 1 57EF83BE
P 5950 4700
F 0 "#PWR01" H 5950 4450 50  0001 C CNN
F 1 "GND" H 5950 4550 50  0000 C CNN
F 2 "" H 5950 4700 50  0000 C CNN
F 3 "" H 5950 4700 50  0000 C CNN
	1    5950 4700
	1    0    0    -1  
$EndComp
$Comp
L R R1
U 1 1 57EF84D8
P 4550 4200
F 0 "R1" V 4630 4200 50  0000 C CNN
F 1 "220R" V 4550 4200 50  0000 C CNN
F 2 "Resistors_ThroughHole:Resistor_Horizontal_RM7mm" V 4480 4200 50  0001 C CNN
F 3 "" H 4550 4200 50  0000 C CNN
	1    4550 4200
	0    -1   -1   0   
$EndComp
Wire Wire Line
	5450 4600 5950 4600
Wire Wire Line
	5950 4500 5950 4700
Wire Wire Line
	5950 4000 5950 4100
Wire Wire Line
	5450 4300 5650 4300
Wire Wire Line
	5450 4400 5450 4600
Connection ~ 5450 4600
Connection ~ 5550 4300
$Comp
L VCC #PWR02
U 1 1 57EF8793
P 5950 3400
F 0 "#PWR02" H 5950 3250 50  0001 C CNN
F 1 "VCC" H 5950 3550 50  0000 C CNN
F 2 "" H 5950 3400 50  0000 C CNN
F 3 "" H 5950 3400 50  0000 C CNN
	1    5950 3400
	1    0    0    -1  
$EndComp
Wire Wire Line
	5900 3500 5950 3500
Wire Wire Line
	5950 3400 5950 3600
Connection ~ 5950 3500
Wire Wire Line
	4850 4200 4700 4200
Wire Wire Line
	5550 3500 5550 4300
Wire Wire Line
	5650 3800 5550 3800
Connection ~ 5550 3800
Connection ~ 5950 4600
Connection ~ 5950 4050
Wire Wire Line
	5600 3500 5550 3500
$Comp
L RFP30N06 Q4
U 1 1 57F0D480
P 5850 4300
F 0 "Q4" H 6150 4350 50  0000 R CNN
F 1 "RFP30N06" H 6450 4250 50  0000 R CNN
F 2 "TO_SOT_Packages_THT:TO-220_Neutral123_Vertical_MountedFromLS" H 6050 4400 50  0001 C CNN
F 3 "" H 5850 4300 50  0000 C CNN
	1    5850 4300
	1    0    0    -1  
$EndComp
$Comp
L FQP27P06 Q3
U 1 1 57F0D6A3
P 5850 3800
F 0 "Q3" H 6150 3850 50  0000 R CNN
F 1 "FQP27P06" H 6450 3750 50  0000 R CNN
F 2 "TO_SOT_Packages_THT:TO-220_Neutral123_Vertical_MountedFromLS" H 6050 3900 50  0001 C CNN
F 3 "" H 5850 3800 50  0000 C CNN
	1    5850 3800
	1    0    0    -1  
$EndComp
$Comp
L 4N25 U2
U 1 1 57F0D77E
P 5150 4300
F 0 "U2" H 4950 4500 50  0000 L CNN
F 1 "4N25" H 5150 4500 50  0000 L CNN
F 2 "Housings_DIP:DIP-6_W7.62mm" H 4950 4100 50  0000 L CIN
F 3 "" H 5150 4300 50  0000 L CNN
	1    5150 4300
	1    0    0    -1  
$EndComp
$Comp
L StepperMotor M1
U 1 1 57F0DAEC
P 6550 3100
F 0 "M1" H 6550 3000 60  0000 C CNN
F 1 "StepperMotor" H 6550 3250 60  0000 C CNN
F 2 "Pin_Headers:Pin_Header_Straight_1x04" H 6550 3100 60  0001 C CNN
F 3 "" H 6550 3100 60  0001 C CNN
	1    6550 3100
	1    0    0    -1  
$EndComp
Wire Wire Line
	6350 3450 6350 4050
Wire Wire Line
	6350 4050 5950 4050
$Comp
L R R6
U 1 1 57F0EC0F
P 7350 3500
F 0 "R6" V 7430 3500 50  0000 C CNN
F 1 "10kR" V 7350 3500 50  0000 C CNN
F 2 "Resistors_ThroughHole:Resistor_Horizontal_RM7mm" V 7280 3500 50  0001 C CNN
F 3 "" H 7350 3500 50  0000 C CNN
	1    7350 3500
	0    -1   1    0   
$EndComp
$Comp
L GND #PWR03
U 1 1 57F0EC15
P 7150 4700
F 0 "#PWR03" H 7150 4450 50  0001 C CNN
F 1 "GND" H 7150 4550 50  0000 C CNN
F 2 "" H 7150 4700 50  0000 C CNN
F 3 "" H 7150 4700 50  0000 C CNN
	1    7150 4700
	-1   0    0    -1  
$EndComp
$Comp
L R R8
U 1 1 57F0EC1B
P 8550 4200
F 0 "R8" V 8630 4200 50  0000 C CNN
F 1 "220R" V 8550 4200 50  0000 C CNN
F 2 "Resistors_ThroughHole:Resistor_Horizontal_RM7mm" V 8480 4200 50  0001 C CNN
F 3 "" H 8550 4200 50  0000 C CNN
	1    8550 4200
	0    1    -1   0   
$EndComp
Wire Wire Line
	7150 4500 7150 4700
Wire Wire Line
	7150 4000 7150 4100
Wire Wire Line
	7450 4300 7650 4300
Wire Wire Line
	7650 4400 7650 4600
Connection ~ 7650 4600
Connection ~ 7550 4300
$Comp
L VCC #PWR04
U 1 1 57F0EC2D
P 7150 3400
F 0 "#PWR04" H 7150 3250 50  0001 C CNN
F 1 "VCC" H 7150 3550 50  0000 C CNN
F 2 "" H 7150 3400 50  0000 C CNN
F 3 "" H 7150 3400 50  0000 C CNN
	1    7150 3400
	-1   0    0    -1  
$EndComp
Wire Wire Line
	7200 3500 7150 3500
Wire Wire Line
	7150 3400 7150 3600
Connection ~ 7150 3500
Wire Wire Line
	8250 4200 8400 4200
Wire Wire Line
	7550 3500 7550 4300
Wire Wire Line
	7450 3800 7550 3800
Connection ~ 7550 3800
Connection ~ 7150 4600
Connection ~ 7150 4050
Wire Wire Line
	7500 3500 7550 3500
$Comp
L RFP30N06 Q8
U 1 1 57F0EC3F
P 7250 4300
F 0 "Q8" H 7550 4350 50  0000 R CNN
F 1 "RFP30N06" H 7850 4250 50  0000 R CNN
F 2 "TO_SOT_Packages_THT:TO-220_Neutral123_Vertical_MountedFromLS" H 7450 4400 50  0001 C CNN
F 3 "" H 7250 4300 50  0000 C CNN
	1    7250 4300
	-1   0    0    -1  
$EndComp
$Comp
L FQP27P06 Q7
U 1 1 57F0EC45
P 7250 3800
F 0 "Q7" H 7550 3850 50  0000 R CNN
F 1 "FQP27P06" H 7850 3750 50  0000 R CNN
F 2 "TO_SOT_Packages_THT:TO-220_Neutral123_Vertical_MountedFromLS" H 7450 3900 50  0001 C CNN
F 3 "" H 7250 3800 50  0000 C CNN
	1    7250 3800
	-1   0    0    -1  
$EndComp
$Comp
L 4N25 U4
U 1 1 57F0EC4B
P 7950 4300
F 0 "U4" H 7750 4500 50  0000 L CNN
F 1 "4N25" H 7950 4500 50  0000 L CNN
F 2 "Housings_DIP:DIP-6_W7.62mm" H 7750 4100 50  0000 L CIN
F 3 "" H 7950 4300 50  0000 L CNN
	1    7950 4300
	-1   0    0    -1  
$EndComp
Wire Wire Line
	6750 3450 6750 4050
Wire Wire Line
	6750 4050 7150 4050
$Comp
L R R4
U 1 1 57F0F227
P 5750 1650
F 0 "R4" V 5830 1650 50  0000 C CNN
F 1 "10kR" V 5750 1650 50  0000 C CNN
F 2 "Resistors_ThroughHole:Resistor_Horizontal_RM7mm" V 5680 1650 50  0001 C CNN
F 3 "" H 5750 1650 50  0000 C CNN
	1    5750 1650
	0    1    1    0   
$EndComp
$Comp
L GND #PWR05
U 1 1 57F0F22D
P 5950 2850
F 0 "#PWR05" H 5950 2600 50  0001 C CNN
F 1 "GND" H 5950 2700 50  0000 C CNN
F 2 "" H 5950 2850 50  0000 C CNN
F 3 "" H 5950 2850 50  0000 C CNN
	1    5950 2850
	1    0    0    -1  
$EndComp
$Comp
L R R3
U 1 1 57F0F233
P 4550 2350
F 0 "R3" V 4630 2350 50  0000 C CNN
F 1 "220R" V 4550 2350 50  0000 C CNN
F 2 "Resistors_ThroughHole:Resistor_Horizontal_RM7mm" V 4480 2350 50  0001 C CNN
F 3 "" H 4550 2350 50  0000 C CNN
	1    4550 2350
	0    -1   -1   0   
$EndComp
Wire Wire Line
	5950 2650 5950 2850
Wire Wire Line
	5950 2150 5950 2250
Wire Wire Line
	5450 2450 5650 2450
Wire Wire Line
	5450 2550 5450 2750
Connection ~ 5450 2750
Connection ~ 5550 2450
$Comp
L VCC #PWR06
U 1 1 57F0F245
P 5950 1550
F 0 "#PWR06" H 5950 1400 50  0001 C CNN
F 1 "VCC" H 5950 1700 50  0000 C CNN
F 2 "" H 5950 1550 50  0000 C CNN
F 3 "" H 5950 1550 50  0000 C CNN
	1    5950 1550
	1    0    0    -1  
$EndComp
Wire Wire Line
	5900 1650 5950 1650
Wire Wire Line
	5950 1550 5950 1750
Connection ~ 5950 1650
Wire Wire Line
	4850 2350 4700 2350
Wire Wire Line
	5550 1650 5550 2450
Wire Wire Line
	5650 1950 5550 1950
Connection ~ 5550 1950
Connection ~ 5950 2750
Connection ~ 5950 2200
Wire Wire Line
	5600 1650 5550 1650
$Comp
L RFP30N06 Q2
U 1 1 57F0F257
P 5850 2450
F 0 "Q2" H 6150 2500 50  0000 R CNN
F 1 "RFP30N06" H 6450 2400 50  0000 R CNN
F 2 "TO_SOT_Packages_THT:TO-220_Neutral123_Vertical_MountedFromLS" H 6050 2550 50  0001 C CNN
F 3 "" H 5850 2450 50  0000 C CNN
	1    5850 2450
	1    0    0    -1  
$EndComp
$Comp
L FQP27P06 Q1
U 1 1 57F0F25D
P 5850 1950
F 0 "Q1" H 6150 2000 50  0000 R CNN
F 1 "FQP27P06" H 6450 1900 50  0000 R CNN
F 2 "TO_SOT_Packages_THT:TO-220_Neutral123_Vertical_MountedFromLS" H 6050 2050 50  0001 C CNN
F 3 "" H 5850 1950 50  0000 C CNN
	1    5850 1950
	1    0    0    -1  
$EndComp
$Comp
L 4N25 U1
U 1 1 57F0F263
P 5150 2450
F 0 "U1" H 4950 2650 50  0000 L CNN
F 1 "4N25" H 5150 2650 50  0000 L CNN
F 2 "Housings_DIP:DIP-6_W7.62mm" H 4950 2250 50  0000 L CIN
F 3 "" H 5150 2450 50  0000 L CNN
	1    5150 2450
	1    0    0    -1  
$EndComp
Wire Wire Line
	6350 2700 6350 2200
Wire Wire Line
	6350 2200 5950 2200
$Comp
L R R5
U 1 1 57F0F271
P 7350 1650
F 0 "R5" V 7430 1650 50  0000 C CNN
F 1 "10kR" V 7350 1650 50  0000 C CNN
F 2 "Resistors_ThroughHole:Resistor_Horizontal_RM7mm" V 7280 1650 50  0001 C CNN
F 3 "" H 7350 1650 50  0000 C CNN
	1    7350 1650
	0    -1   1    0   
$EndComp
$Comp
L GND #PWR07
U 1 1 57F0F277
P 7150 2850
F 0 "#PWR07" H 7150 2600 50  0001 C CNN
F 1 "GND" H 7150 2700 50  0000 C CNN
F 2 "" H 7150 2850 50  0000 C CNN
F 3 "" H 7150 2850 50  0000 C CNN
	1    7150 2850
	-1   0    0    -1  
$EndComp
$Comp
L R R7
U 1 1 57F0F27D
P 8550 2350
F 0 "R7" V 8630 2350 50  0000 C CNN
F 1 "220R" V 8550 2350 50  0000 C CNN
F 2 "Resistors_ThroughHole:Resistor_Horizontal_RM7mm" V 8480 2350 50  0001 C CNN
F 3 "" H 8550 2350 50  0000 C CNN
	1    8550 2350
	0    1    -1   0   
$EndComp
Wire Wire Line
	7150 2650 7150 2850
Wire Wire Line
	7150 2150 7150 2250
Wire Wire Line
	7450 2450 7650 2450
Wire Wire Line
	7650 2550 7650 2750
Connection ~ 7650 2750
Connection ~ 7550 2450
$Comp
L VCC #PWR08
U 1 1 57F0F28F
P 7150 1550
F 0 "#PWR08" H 7150 1400 50  0001 C CNN
F 1 "VCC" H 7150 1700 50  0000 C CNN
F 2 "" H 7150 1550 50  0000 C CNN
F 3 "" H 7150 1550 50  0000 C CNN
	1    7150 1550
	-1   0    0    -1  
$EndComp
Wire Wire Line
	7200 1650 7150 1650
Wire Wire Line
	7150 1550 7150 1750
Connection ~ 7150 1650
Wire Wire Line
	8250 2350 8400 2350
Wire Wire Line
	7550 1650 7550 2450
Wire Wire Line
	7450 1950 7550 1950
Connection ~ 7550 1950
Connection ~ 7150 2750
Connection ~ 7150 2200
Wire Wire Line
	7500 1650 7550 1650
$Comp
L RFP30N06 Q6
U 1 1 57F0F2A1
P 7250 2450
F 0 "Q6" H 7550 2500 50  0000 R CNN
F 1 "RFP30N06" H 7850 2400 50  0000 R CNN
F 2 "TO_SOT_Packages_THT:TO-220_Neutral123_Vertical_MountedFromLS" H 7450 2550 50  0001 C CNN
F 3 "" H 7250 2450 50  0000 C CNN
	1    7250 2450
	-1   0    0    -1  
$EndComp
$Comp
L FQP27P06 Q5
U 1 1 57F0F2A7
P 7250 1950
F 0 "Q5" H 7550 2000 50  0000 R CNN
F 1 "FQP27P06" H 7850 1900 50  0000 R CNN
F 2 "TO_SOT_Packages_THT:TO-220_Neutral123_Vertical_MountedFromLS" H 7450 2050 50  0001 C CNN
F 3 "" H 7250 1950 50  0000 C CNN
	1    7250 1950
	-1   0    0    -1  
$EndComp
$Comp
L 4N25 U3
U 1 1 57F0F2AD
P 7950 2450
F 0 "U3" H 7750 2650 50  0000 L CNN
F 1 "4N25" H 7950 2650 50  0000 L CNN
F 2 "Housings_DIP:DIP-6_W7.62mm" H 7750 2250 50  0000 L CIN
F 3 "" H 7950 2450 50  0000 L CNN
	1    7950 2450
	-1   0    0    -1  
$EndComp
Wire Wire Line
	6750 2700 6750 2200
Wire Wire Line
	6750 2200 7150 2200
$Comp
L ArduinoNano Arduino1
U 1 1 57F0FCDB
P 1800 1600
F 0 "Arduino1" H 1800 550 60  0000 C CNN
F 1 "ArduinoNano" H 1800 2200 60  0000 C CNN
F 2 "lib:Arduino_Nano" H 1800 1600 60  0001 C CNN
F 3 "" H 1800 1600 60  0001 C CNN
	1    1800 1600
	1    0    0    -1  
$EndComp
Text GLabel 2400 2250 2    60   Output ~ 0
C0
Wire Wire Line
	2400 2250 2300 2250
Text GLabel 2400 2150 2    60   Output ~ 0
C1
Text GLabel 2400 2050 2    60   Output ~ 0
C2
Text GLabel 2400 1950 2    60   Output ~ 0
C3
Wire Wire Line
	2400 2150 2300 2150
Wire Wire Line
	2400 2050 2300 2050
Wire Wire Line
	2400 1950 2300 1950
Text GLabel 8900 2350 2    60   Input ~ 0
C0
Text GLabel 4200 2350 0    60   Input ~ 0
C1
Text GLabel 8900 4200 2    60   Input ~ 0
C2
Text GLabel 4250 4200 0    60   Input ~ 0
C3
Wire Wire Line
	8900 4200 8700 4200
Wire Wire Line
	8900 2350 8700 2350
Wire Wire Line
	4400 2350 4200 2350
Wire Wire Line
	4400 4200 4250 4200
$Comp
L CONN_01X02 P1
U 1 1 57F112B2
P 1100 3650
F 0 "P1" H 1100 3800 50  0000 C CNN
F 1 "Power 5v" V 1200 3650 50  0000 C CNN
F 2 "Pin_Headers:Pin_Header_Straight_1x02" H 1100 3650 50  0001 C CNN
F 3 "" H 1100 3650 50  0000 C CNN
	1    1100 3650
	0    1    1    0   
$EndComp
$Comp
L VCC #PWR09
U 1 1 57F114EF
P 1150 3350
F 0 "#PWR09" H 1150 3200 50  0001 C CNN
F 1 "VCC" H 1150 3500 50  0000 C CNN
F 2 "" H 1150 3350 50  0000 C CNN
F 3 "" H 1150 3350 50  0000 C CNN
	1    1150 3350
	1    0    0    -1  
$EndComp
$Comp
L GND #PWR010
U 1 1 57F11531
P 850 3450
F 0 "#PWR010" H 850 3200 50  0001 C CNN
F 1 "GND" H 850 3300 50  0000 C CNN
F 2 "" H 850 3450 50  0000 C CNN
F 3 "" H 850 3450 50  0000 C CNN
	1    850  3450
	1    0    0    -1  
$EndComp
Wire Wire Line
	1050 3450 850  3450
Wire Wire Line
	1150 3450 1150 3350
Text GLabel 2400 1250 2    60   Output ~ 0
USB_GND
Wire Wire Line
	2400 1250 2300 1250
Text GLabel 4500 2550 0    60   Input ~ 0
USB_GND
Wire Wire Line
	4500 2550 4850 2550
Text GLabel 4550 4400 0    60   Input ~ 0
USB_GND
Wire Wire Line
	5450 2750 5950 2750
Wire Wire Line
	4850 4400 4550 4400
Text GLabel 8600 4400 2    60   Input ~ 0
USB_GND
Wire Wire Line
	8250 4400 8600 4400
Wire Wire Line
	7650 4600 7150 4600
Text GLabel 8600 2550 2    60   Input ~ 0
USB_GND
Wire Wire Line
	8600 2550 8250 2550
Wire Wire Line
	7650 2750 7150 2750
$EndSCHEMATC
