/* File : example.i */
%module example

%{
#include <string.h>

typedef struct point {
  int x;
  int y;
} Point;


Point *point_create(int x, int y) {
  Point *p = (Point *) malloc(sizeof(Point));
  p->x = x;
  p->y = y;

  return p;
}

/* this function will be wrapped by SWIG */
char *point_toString1(Point *p) {
  static char buf[80];

  sprintf(buf, "(%d,%d)", p->x, p->y);

  return buf;
}

/* this one we wrapped manually*/
JNIEXPORT jstring JNICALL Java_exampleJNI_point_1toString2(JNIEnv *jenv, jclass jcls, jlong jpoint) {
    Point * p;
    char buf[80];
    jstring result;

    (void)jcls;

    p = *(Point **)(void *)&jpoint;
    sprintf(buf, "[%d,%d]", p->x, p->y);

    result = (*jenv)->NewStringUTF(jenv, buf);

    return result;
}
%}


Point *point_create(int x, int y);
char *point_toString1(Point *p);

/* give access to free() for memory cleanup of the malloc'd Point */
extern void free(void *memblock);

%native(point_toString2) char *point_toString2(Point *p);
