(kicad_pcb (version 4) (host pcbnew 4.0.5-e0-6337~49~ubuntu16.04.1)

  (general
    (links 12)
    (no_connects 0)
    (area 124.384999 79.934999 168.985001 129.615001)
    (thickness 1.6)
    (drawings 4)
    (tracks 51)
    (zones 0)
    (modules 10)
    (nets 32)
  )

  (page A4)
  (layers
    (0 F.Cu signal)
    (31 B.Cu signal)
    (32 B.Adhes user)
    (33 F.Adhes user)
    (34 B.Paste user)
    (35 F.Paste user)
    (36 B.SilkS user)
    (37 F.SilkS user)
    (38 B.Mask user)
    (39 F.Mask user)
    (40 Dwgs.User user)
    (41 Cmts.User user)
    (42 Eco1.User user)
    (43 Eco2.User user)
    (44 Edge.Cuts user)
    (45 Margin user)
    (46 B.CrtYd user)
    (47 F.CrtYd user)
    (48 B.Fab user)
    (49 F.Fab user)
  )

  (setup
    (last_trace_width 2)
    (trace_clearance 0.2)
    (zone_clearance 0.508)
    (zone_45_only no)
    (trace_min 2)
    (segment_width 0.2)
    (edge_width 0.15)
    (via_size 0.6)
    (via_drill 0.4)
    (via_min_size 0.4)
    (via_min_drill 0.3)
    (uvia_size 0.3)
    (uvia_drill 0.1)
    (uvias_allowed no)
    (uvia_min_size 0.2)
    (uvia_min_drill 0.1)
    (pcb_text_width 0.3)
    (pcb_text_size 1.5 1.5)
    (mod_edge_width 0.15)
    (mod_text_size 1 1)
    (mod_text_width 0.15)
    (pad_size 1.524 1.524)
    (pad_drill 0.762)
    (pad_to_mask_clearance 0.2)
    (aux_axis_origin 0 0)
    (visible_elements 7FFFFFFF)
    (pcbplotparams
      (layerselection 0x01000_80000000)
      (usegerberextensions false)
      (excludeedgelayer true)
      (linewidth 0.100000)
      (plotframeref false)
      (viasonmask false)
      (mode 1)
      (useauxorigin false)
      (hpglpennumber 1)
      (hpglpenspeed 20)
      (hpglpendiameter 15)
      (hpglpenoverlay 2)
      (psnegative false)
      (psa4output false)
      (plotreference true)
      (plotvalue true)
      (plotinvisibletext false)
      (padsonsilk false)
      (subtractmaskfromsilk false)
      (outputformat 1)
      (mirror false)
      (drillshape 0)
      (scaleselection 1)
      (outputdirectory ""))
  )

  (net 0 "")
  (net 1 "Net-(Arduino1-Pad1)")
  (net 2 "Net-(Arduino1-Pad2)")
  (net 3 "Net-(Arduino1-Pad3)")
  (net 4 "Net-(Arduino1-Pad4)")
  (net 5 "Net-(Arduino1-Pad5)")
  (net 6 "Net-(Arduino1-Pad6)")
  (net 7 "Net-(Arduino1-Pad7)")
  (net 8 "Net-(Arduino1-Pad8)")
  (net 9 "Net-(Arduino1-Pad9)")
  (net 10 "Net-(Arduino1-Pad10)")
  (net 11 "Net-(Arduino1-Pad11)")
  (net 12 "Net-(Arduino1-Pad12)")
  (net 13 "Net-(Arduino1-Pad13)")
  (net 14 "Net-(Arduino1-Pad14)")
  (net 15 "Net-(Arduino1-Pad15)")
  (net 16 "Net-(Arduino1-Pad16)")
  (net 17 "Net-(Arduino1-Pad17)")
  (net 18 "Net-(Arduino1-Pad18)")
  (net 19 "Net-(Arduino1-Pad19)")
  (net 20 "Net-(Arduino1-Pad20)")
  (net 21 "Net-(Arduino1-Pad21)")
  (net 22 "Net-(Arduino1-Pad22)")
  (net 23 "Net-(Arduino1-Pad23)")
  (net 24 "Net-(Arduino1-Pad24)")
  (net 25 "Net-(Arduino1-Pad25)")
  (net 26 "Net-(Arduino1-Pad26)")
  (net 27 "Net-(Arduino1-Pad27)")
  (net 28 "Net-(Arduino1-Pad28)")
  (net 29 "Net-(Arduino1-Pad29)")
  (net 30 "Net-(Arduino1-Pad30)")
  (net 31 "Net-(D1-Pad1)")

  (net_class Default "This is the default net class."
    (clearance 0.2)
    (trace_width 2)
    (via_dia 0.6)
    (via_drill 0.4)
    (uvia_dia 0.3)
    (uvia_drill 0.1)
    (add_net "Net-(Arduino1-Pad1)")
    (add_net "Net-(Arduino1-Pad10)")
    (add_net "Net-(Arduino1-Pad11)")
    (add_net "Net-(Arduino1-Pad12)")
    (add_net "Net-(Arduino1-Pad13)")
    (add_net "Net-(Arduino1-Pad14)")
    (add_net "Net-(Arduino1-Pad15)")
    (add_net "Net-(Arduino1-Pad16)")
    (add_net "Net-(Arduino1-Pad17)")
    (add_net "Net-(Arduino1-Pad18)")
    (add_net "Net-(Arduino1-Pad19)")
    (add_net "Net-(Arduino1-Pad2)")
    (add_net "Net-(Arduino1-Pad20)")
    (add_net "Net-(Arduino1-Pad21)")
    (add_net "Net-(Arduino1-Pad22)")
    (add_net "Net-(Arduino1-Pad23)")
    (add_net "Net-(Arduino1-Pad24)")
    (add_net "Net-(Arduino1-Pad25)")
    (add_net "Net-(Arduino1-Pad26)")
    (add_net "Net-(Arduino1-Pad27)")
    (add_net "Net-(Arduino1-Pad28)")
    (add_net "Net-(Arduino1-Pad29)")
    (add_net "Net-(Arduino1-Pad3)")
    (add_net "Net-(Arduino1-Pad30)")
    (add_net "Net-(Arduino1-Pad4)")
    (add_net "Net-(Arduino1-Pad5)")
    (add_net "Net-(Arduino1-Pad6)")
    (add_net "Net-(Arduino1-Pad7)")
    (add_net "Net-(Arduino1-Pad8)")
    (add_net "Net-(Arduino1-Pad9)")
    (add_net "Net-(D1-Pad1)")
  )

  (module "my-footprints:Arduino Nano" (layer F.Cu) (tedit 57F0C056) (tstamp 584A55C3)
    (at 148.5011 105.0036)
    (path /584A4709)
    (fp_text reference Arduino1 (at 0 20.32) (layer F.SilkS)
      (effects (font (size 1 1) (thickness 0.15)))
    )
    (fp_text value ArduinoNano (at 0 -0.5) (layer F.Fab)
      (effects (font (size 1 1) (thickness 0.15)))
    )
    (fp_line (start -10.16 -22.86) (end 10.16 -22.86) (layer F.SilkS) (width 0.15))
    (fp_line (start 10.16 -22.86) (end 10.16 22.86) (layer F.SilkS) (width 0.15))
    (fp_line (start 10.16 22.86) (end -10.16 22.86) (layer F.SilkS) (width 0.15))
    (fp_line (start -10.16 22.86) (end -10.16 -22.86) (layer F.SilkS) (width 0.15))
    (pad 1 thru_hole rect (at -7.62 -17.78) (size 1.524 1.524) (drill 0.762) (layers *.Cu *.Mask)
      (net 1 "Net-(Arduino1-Pad1)"))
    (pad 2 thru_hole circle (at -7.62 -15.24) (size 1.524 1.524) (drill 0.762) (layers *.Cu *.Mask)
      (net 2 "Net-(Arduino1-Pad2)"))
    (pad 3 thru_hole circle (at -7.62 -12.7) (size 1.524 1.524) (drill 0.762) (layers *.Cu *.Mask)
      (net 3 "Net-(Arduino1-Pad3)"))
    (pad 4 thru_hole circle (at -7.62 -10.16) (size 1.524 1.524) (drill 0.762) (layers *.Cu *.Mask)
      (net 4 "Net-(Arduino1-Pad4)"))
    (pad 5 thru_hole circle (at -7.62 -7.62) (size 1.524 1.524) (drill 0.762) (layers *.Cu *.Mask)
      (net 5 "Net-(Arduino1-Pad5)"))
    (pad 6 thru_hole circle (at -7.62 -5.08) (size 1.524 1.524) (drill 0.762) (layers *.Cu *.Mask)
      (net 6 "Net-(Arduino1-Pad6)"))
    (pad 7 thru_hole circle (at -7.62 -2.54) (size 1.524 1.524) (drill 0.762) (layers *.Cu *.Mask)
      (net 7 "Net-(Arduino1-Pad7)"))
    (pad 8 thru_hole circle (at -7.62 0) (size 1.524 1.524) (drill 0.762) (layers *.Cu *.Mask)
      (net 8 "Net-(Arduino1-Pad8)"))
    (pad 9 thru_hole circle (at -7.62 2.54) (size 1.524 1.524) (drill 0.762) (layers *.Cu *.Mask)
      (net 9 "Net-(Arduino1-Pad9)"))
    (pad 10 thru_hole circle (at -7.62 5.08) (size 1.524 1.524) (drill 0.762) (layers *.Cu *.Mask)
      (net 10 "Net-(Arduino1-Pad10)"))
    (pad 11 thru_hole circle (at -7.62 7.62) (size 1.524 1.524) (drill 0.762) (layers *.Cu *.Mask)
      (net 11 "Net-(Arduino1-Pad11)"))
    (pad 12 thru_hole circle (at -7.62 10.16) (size 1.524 1.524) (drill 0.762) (layers *.Cu *.Mask)
      (net 12 "Net-(Arduino1-Pad12)"))
    (pad 13 thru_hole circle (at -7.62 12.7) (size 1.524 1.524) (drill 0.762) (layers *.Cu *.Mask)
      (net 13 "Net-(Arduino1-Pad13)"))
    (pad 14 thru_hole circle (at -7.62 15.24) (size 1.524 1.524) (drill 0.762) (layers *.Cu *.Mask)
      (net 14 "Net-(Arduino1-Pad14)"))
    (pad 15 thru_hole circle (at -7.62 17.78) (size 1.524 1.524) (drill 0.762) (layers *.Cu *.Mask)
      (net 15 "Net-(Arduino1-Pad15)"))
    (pad 16 thru_hole circle (at 7.62 17.78) (size 1.524 1.524) (drill 0.762) (layers *.Cu *.Mask)
      (net 16 "Net-(Arduino1-Pad16)"))
    (pad 17 thru_hole circle (at 7.62 15.24) (size 1.524 1.524) (drill 0.762) (layers *.Cu *.Mask)
      (net 17 "Net-(Arduino1-Pad17)"))
    (pad 18 thru_hole circle (at 7.62 12.7) (size 1.524 1.524) (drill 0.762) (layers *.Cu *.Mask)
      (net 18 "Net-(Arduino1-Pad18)"))
    (pad 19 thru_hole circle (at 7.62 10.16) (size 1.524 1.524) (drill 0.762) (layers *.Cu *.Mask)
      (net 19 "Net-(Arduino1-Pad19)"))
    (pad 20 thru_hole circle (at 7.62 7.62) (size 1.524 1.524) (drill 0.762) (layers *.Cu *.Mask)
      (net 20 "Net-(Arduino1-Pad20)"))
    (pad 21 thru_hole circle (at 7.62 5.08) (size 1.524 1.524) (drill 0.762) (layers *.Cu *.Mask)
      (net 21 "Net-(Arduino1-Pad21)"))
    (pad 22 thru_hole circle (at 7.62 2.54) (size 1.524 1.524) (drill 0.762) (layers *.Cu *.Mask)
      (net 22 "Net-(Arduino1-Pad22)"))
    (pad 23 thru_hole circle (at 7.62 0) (size 1.524 1.524) (drill 0.762) (layers *.Cu *.Mask)
      (net 23 "Net-(Arduino1-Pad23)"))
    (pad 24 thru_hole circle (at 7.62 -2.54) (size 1.524 1.524) (drill 0.762) (layers *.Cu *.Mask)
      (net 24 "Net-(Arduino1-Pad24)"))
    (pad 25 thru_hole circle (at 7.62 -5.08) (size 1.524 1.524) (drill 0.762) (layers *.Cu *.Mask)
      (net 25 "Net-(Arduino1-Pad25)"))
    (pad 26 thru_hole circle (at 7.62 -7.62) (size 1.524 1.524) (drill 0.762) (layers *.Cu *.Mask)
      (net 26 "Net-(Arduino1-Pad26)"))
    (pad 27 thru_hole circle (at 7.62 -10.16) (size 1.524 1.524) (drill 0.762) (layers *.Cu *.Mask)
      (net 27 "Net-(Arduino1-Pad27)"))
    (pad 28 thru_hole circle (at 7.62 -12.7) (size 1.524 1.524) (drill 0.762) (layers *.Cu *.Mask)
      (net 28 "Net-(Arduino1-Pad28)"))
    (pad 29 thru_hole circle (at 7.62 -15.24) (size 1.524 1.524) (drill 0.762) (layers *.Cu *.Mask)
      (net 29 "Net-(Arduino1-Pad29)"))
    (pad 30 thru_hole rect (at 7.62 -17.78) (size 1.524 1.524) (drill 0.762) (layers *.Cu *.Mask)
      (net 30 "Net-(Arduino1-Pad30)"))
  )

  (module LEDs:LED-3MM (layer F.Cu) (tedit 559B82F6) (tstamp 584A55C9)
    (at 133.35 105.41 270)
    (descr "LED 3mm round vertical")
    (tags "LED  3mm round vertical")
    (path /584A4C59)
    (fp_text reference D1 (at 1.91 3.06 270) (layer F.SilkS)
      (effects (font (size 1 1) (thickness 0.15)))
    )
    (fp_text value LED_Small (at 1.3 -2.9 270) (layer F.Fab)
      (effects (font (size 1 1) (thickness 0.15)))
    )
    (fp_line (start -1.2 2.3) (end 3.8 2.3) (layer F.CrtYd) (width 0.05))
    (fp_line (start 3.8 2.3) (end 3.8 -2.2) (layer F.CrtYd) (width 0.05))
    (fp_line (start 3.8 -2.2) (end -1.2 -2.2) (layer F.CrtYd) (width 0.05))
    (fp_line (start -1.2 -2.2) (end -1.2 2.3) (layer F.CrtYd) (width 0.05))
    (fp_line (start -0.199 1.314) (end -0.199 1.114) (layer F.SilkS) (width 0.15))
    (fp_line (start -0.199 -1.28) (end -0.199 -1.1) (layer F.SilkS) (width 0.15))
    (fp_arc (start 1.301 0.034) (end -0.199 -1.286) (angle 108.5) (layer F.SilkS) (width 0.15))
    (fp_arc (start 1.301 0.034) (end 0.25 -1.1) (angle 85.7) (layer F.SilkS) (width 0.15))
    (fp_arc (start 1.311 0.034) (end 3.051 0.994) (angle 110) (layer F.SilkS) (width 0.15))
    (fp_arc (start 1.301 0.034) (end 2.335 1.094) (angle 87.5) (layer F.SilkS) (width 0.15))
    (fp_text user K (at -1.69 1.74 270) (layer F.SilkS)
      (effects (font (size 1 1) (thickness 0.15)))
    )
    (pad 1 thru_hole rect (at 0 0) (size 2 2) (drill 1.00076) (layers *.Cu *.Mask)
      (net 31 "Net-(D1-Pad1)"))
    (pad 2 thru_hole circle (at 2.54 0 270) (size 2 2) (drill 1.00076) (layers *.Cu *.Mask)
      (net 6 "Net-(Arduino1-Pad6)"))
    (model LEDs.3dshapes/LED-3MM.wrl
      (at (xyz 0.05 0 0))
      (scale (xyz 1 1 1))
      (rotate (xyz 0 0 90))
    )
  )

  (module Pin_Headers:Pin_Header_Straight_1x03 (layer F.Cu) (tedit 0) (tstamp 584A55D0)
    (at 162.56 96.52 180)
    (descr "Through hole pin header")
    (tags "pin header")
    (path /584A4768)
    (fp_text reference P1 (at 0 -5.1 180) (layer F.SilkS)
      (effects (font (size 1 1) (thickness 0.15)))
    )
    (fp_text value CONN_01X03 (at 0 -3.1 180) (layer F.Fab)
      (effects (font (size 1 1) (thickness 0.15)))
    )
    (fp_line (start -1.75 -1.75) (end -1.75 6.85) (layer F.CrtYd) (width 0.05))
    (fp_line (start 1.75 -1.75) (end 1.75 6.85) (layer F.CrtYd) (width 0.05))
    (fp_line (start -1.75 -1.75) (end 1.75 -1.75) (layer F.CrtYd) (width 0.05))
    (fp_line (start -1.75 6.85) (end 1.75 6.85) (layer F.CrtYd) (width 0.05))
    (fp_line (start -1.27 1.27) (end -1.27 6.35) (layer F.SilkS) (width 0.15))
    (fp_line (start -1.27 6.35) (end 1.27 6.35) (layer F.SilkS) (width 0.15))
    (fp_line (start 1.27 6.35) (end 1.27 1.27) (layer F.SilkS) (width 0.15))
    (fp_line (start 1.55 -1.55) (end 1.55 0) (layer F.SilkS) (width 0.15))
    (fp_line (start 1.27 1.27) (end -1.27 1.27) (layer F.SilkS) (width 0.15))
    (fp_line (start -1.55 0) (end -1.55 -1.55) (layer F.SilkS) (width 0.15))
    (fp_line (start -1.55 -1.55) (end 1.55 -1.55) (layer F.SilkS) (width 0.15))
    (pad 1 thru_hole rect (at 0 0 180) (size 2.032 1.7272) (drill 1.016) (layers *.Cu *.Mask)
      (net 20 "Net-(Arduino1-Pad20)"))
    (pad 2 thru_hole oval (at 0 2.54 180) (size 2.032 1.7272) (drill 1.016) (layers *.Cu *.Mask)
      (net 27 "Net-(Arduino1-Pad27)"))
    (pad 3 thru_hole oval (at 0 5.08 180) (size 2.032 1.7272) (drill 1.016) (layers *.Cu *.Mask)
      (net 29 "Net-(Arduino1-Pad29)"))
    (model Pin_Headers.3dshapes/Pin_Header_Straight_1x03.wrl
      (at (xyz 0 -0.1 0))
      (scale (xyz 1 1 1))
      (rotate (xyz 0 0 90))
    )
  )

  (module Pin_Headers:Pin_Header_Straight_1x03 (layer F.Cu) (tedit 0) (tstamp 584A55D7)
    (at 162.56 110.49 180)
    (descr "Through hole pin header")
    (tags "pin header")
    (path /584A4793)
    (fp_text reference P2 (at 0 -5.1 180) (layer F.SilkS)
      (effects (font (size 1 1) (thickness 0.15)))
    )
    (fp_text value CONN_01X03 (at 0 -3.1 180) (layer F.Fab)
      (effects (font (size 1 1) (thickness 0.15)))
    )
    (fp_line (start -1.75 -1.75) (end -1.75 6.85) (layer F.CrtYd) (width 0.05))
    (fp_line (start 1.75 -1.75) (end 1.75 6.85) (layer F.CrtYd) (width 0.05))
    (fp_line (start -1.75 -1.75) (end 1.75 -1.75) (layer F.CrtYd) (width 0.05))
    (fp_line (start -1.75 6.85) (end 1.75 6.85) (layer F.CrtYd) (width 0.05))
    (fp_line (start -1.27 1.27) (end -1.27 6.35) (layer F.SilkS) (width 0.15))
    (fp_line (start -1.27 6.35) (end 1.27 6.35) (layer F.SilkS) (width 0.15))
    (fp_line (start 1.27 6.35) (end 1.27 1.27) (layer F.SilkS) (width 0.15))
    (fp_line (start 1.55 -1.55) (end 1.55 0) (layer F.SilkS) (width 0.15))
    (fp_line (start 1.27 1.27) (end -1.27 1.27) (layer F.SilkS) (width 0.15))
    (fp_line (start -1.55 0) (end -1.55 -1.55) (layer F.SilkS) (width 0.15))
    (fp_line (start -1.55 -1.55) (end 1.55 -1.55) (layer F.SilkS) (width 0.15))
    (pad 1 thru_hole rect (at 0 0 180) (size 2.032 1.7272) (drill 1.016) (layers *.Cu *.Mask)
      (net 19 "Net-(Arduino1-Pad19)"))
    (pad 2 thru_hole oval (at 0 2.54 180) (size 2.032 1.7272) (drill 1.016) (layers *.Cu *.Mask)
      (net 27 "Net-(Arduino1-Pad27)"))
    (pad 3 thru_hole oval (at 0 5.08 180) (size 2.032 1.7272) (drill 1.016) (layers *.Cu *.Mask)
      (net 29 "Net-(Arduino1-Pad29)"))
    (model Pin_Headers.3dshapes/Pin_Header_Straight_1x03.wrl
      (at (xyz 0 -0.1 0))
      (scale (xyz 1 1 1))
      (rotate (xyz 0 0 90))
    )
  )

  (module Resistors_ThroughHole:Resistor_Horizontal_RM10mm (layer F.Cu) (tedit 56648415) (tstamp 584A55DD)
    (at 133.35 91.44 270)
    (descr "Resistor, Axial,  RM 10mm, 1/3W")
    (tags "Resistor Axial RM 10mm 1/3W")
    (path /584A47D4)
    (fp_text reference R1 (at 5.32892 -3.50012 270) (layer F.SilkS)
      (effects (font (size 1 1) (thickness 0.15)))
    )
    (fp_text value R_Small (at 5.08 3.81 270) (layer F.Fab)
      (effects (font (size 1 1) (thickness 0.15)))
    )
    (fp_line (start -1.25 -1.5) (end 11.4 -1.5) (layer F.CrtYd) (width 0.05))
    (fp_line (start -1.25 1.5) (end -1.25 -1.5) (layer F.CrtYd) (width 0.05))
    (fp_line (start 11.4 -1.5) (end 11.4 1.5) (layer F.CrtYd) (width 0.05))
    (fp_line (start -1.25 1.5) (end 11.4 1.5) (layer F.CrtYd) (width 0.05))
    (fp_line (start 2.54 -1.27) (end 7.62 -1.27) (layer F.SilkS) (width 0.15))
    (fp_line (start 7.62 -1.27) (end 7.62 1.27) (layer F.SilkS) (width 0.15))
    (fp_line (start 7.62 1.27) (end 2.54 1.27) (layer F.SilkS) (width 0.15))
    (fp_line (start 2.54 1.27) (end 2.54 -1.27) (layer F.SilkS) (width 0.15))
    (fp_line (start 2.54 0) (end 1.27 0) (layer F.SilkS) (width 0.15))
    (fp_line (start 7.62 0) (end 8.89 0) (layer F.SilkS) (width 0.15))
    (pad 1 thru_hole circle (at 0 0 270) (size 1.99898 1.99898) (drill 1.00076) (layers *.Cu *.SilkS *.Mask)
      (net 4 "Net-(Arduino1-Pad4)"))
    (pad 2 thru_hole circle (at 10.16 0 270) (size 1.99898 1.99898) (drill 1.00076) (layers *.Cu *.SilkS *.Mask)
      (net 31 "Net-(D1-Pad1)"))
    (model Resistors_ThroughHole.3dshapes/Resistor_Horizontal_RM10mm.wrl
      (at (xyz 0.2 0 0))
      (scale (xyz 0.4 0.4 0.4))
      (rotate (xyz 0 0 0))
    )
  )

  (module my-footprints:ir-receiver (layer F.Cu) (tedit 584A5746) (tstamp 584A587B)
    (at 132.08 115.57 90)
    (path /584A63AD)
    (fp_text reference U1 (at 0 0.5 90) (layer F.SilkS)
      (effects (font (size 1 1) (thickness 0.15)))
    )
    (fp_text value ir-receiver (at 0 -0.5 90) (layer F.Fab)
      (effects (font (size 1 1) (thickness 0.15)))
    )
    (fp_line (start -1.27 -2.54) (end -2.54 -1.27) (layer F.SilkS) (width 0.15))
    (fp_line (start -2.54 -1.27) (end -2.54 1.27) (layer F.SilkS) (width 0.15))
    (fp_line (start -2.54 1.27) (end -1.27 2.54) (layer F.SilkS) (width 0.15))
    (fp_line (start -1.27 -3.81) (end 1.27 -3.81) (layer F.SilkS) (width 0.15))
    (fp_line (start 1.27 -3.81) (end 1.27 3.81) (layer F.SilkS) (width 0.15))
    (fp_line (start 1.27 3.81) (end -1.27 3.81) (layer F.SilkS) (width 0.15))
    (fp_line (start -1.27 3.81) (end -1.27 -3.81) (layer F.SilkS) (width 0.15))
    (pad 2 thru_hole circle (at 0 0 90) (size 1.524 1.524) (drill 0.762) (layers *.Cu *.Mask)
      (net 4 "Net-(Arduino1-Pad4)"))
    (pad 1 thru_hole circle (at 0 -2.54 90) (size 1.524 1.524) (drill 0.762) (layers *.Cu *.Mask)
      (net 14 "Net-(Arduino1-Pad14)"))
    (pad 3 thru_hole circle (at 0 2.54 90) (size 1.524 1.524) (drill 0.762) (layers *.Cu *.Mask)
      (net 27 "Net-(Arduino1-Pad27)"))
  )

  (module Connect:1pin (layer F.Cu) (tedit 0) (tstamp 584A6265)
    (at 163.83 85.09)
    (descr "module 1 pin (ou trou mecanique de percage)")
    (tags DEV)
    (fp_text reference REF** (at 0 -3.048) (layer F.SilkS)
      (effects (font (size 1 1) (thickness 0.15)))
    )
    (fp_text value 1pin (at 0 2.794) (layer F.Fab)
      (effects (font (size 1 1) (thickness 0.15)))
    )
    (fp_circle (center 0 0) (end 0 -2.286) (layer F.SilkS) (width 0.15))
    (pad 1 thru_hole circle (at 0 0) (size 4.064 4.064) (drill 3.048) (layers *.Cu *.Mask))
  )

  (module Connect:1pin (layer F.Cu) (tedit 0) (tstamp 584A6271)
    (at 130.81 85.09)
    (descr "module 1 pin (ou trou mecanique de percage)")
    (tags DEV)
    (fp_text reference REF** (at 0 -3.048) (layer F.SilkS)
      (effects (font (size 1 1) (thickness 0.15)))
    )
    (fp_text value 1pin (at 0 2.794) (layer F.Fab)
      (effects (font (size 1 1) (thickness 0.15)))
    )
    (fp_circle (center 0 0) (end 0 -2.286) (layer F.SilkS) (width 0.15))
    (pad 1 thru_hole circle (at 0 0) (size 4.064 4.064) (drill 3.048) (layers *.Cu *.Mask))
  )

  (module Connect:1pin (layer F.Cu) (tedit 0) (tstamp 584A628C)
    (at 165.1 123.19)
    (descr "module 1 pin (ou trou mecanique de percage)")
    (tags DEV)
    (fp_text reference REF** (at 0 -3.048) (layer F.SilkS)
      (effects (font (size 1 1) (thickness 0.15)))
    )
    (fp_text value 1pin (at 0 2.794) (layer F.Fab)
      (effects (font (size 1 1) (thickness 0.15)))
    )
    (fp_circle (center 0 0) (end 0 -2.286) (layer F.SilkS) (width 0.15))
    (pad 1 thru_hole circle (at 0 0) (size 4.064 4.064) (drill 3.048) (layers *.Cu *.Mask))
  )

  (module Connect:1pin (layer F.Cu) (tedit 0) (tstamp 584A6292)
    (at 130.81 124.46)
    (descr "module 1 pin (ou trou mecanique de percage)")
    (tags DEV)
    (fp_text reference REF** (at 0 -3.048) (layer F.SilkS)
      (effects (font (size 1 1) (thickness 0.15)))
    )
    (fp_text value 1pin (at 0 2.794) (layer F.Fab)
      (effects (font (size 1 1) (thickness 0.15)))
    )
    (fp_circle (center 0 0) (end 0 -2.286) (layer F.SilkS) (width 0.15))
    (pad 1 thru_hole circle (at 0 0) (size 4.064 4.064) (drill 3.048) (layers *.Cu *.Mask))
  )

  (gr_line (start 168.91 129.54) (end 168.91 80.01) (angle 90) (layer Edge.Cuts) (width 0.15))
  (gr_line (start 124.46 129.54) (end 168.91 129.54) (angle 90) (layer Edge.Cuts) (width 0.15))
  (gr_line (start 124.46 80.01) (end 124.46 129.54) (angle 90) (layer Edge.Cuts) (width 0.15))
  (gr_line (start 124.46 80.01) (end 168.91 80.01) (angle 90) (layer Edge.Cuts) (width 0.15))

  (segment (start 132.08 115.57) (end 132.08 119.38) (width 2) (layer B.Cu) (net 4) (status 400000))
  (segment (start 127 91.44) (end 133.35 91.44) (width 2) (layer B.Cu) (net 4) (tstamp 58A7A0D9) (status 800000))
  (segment (start 127 119.38) (end 127 91.44) (width 2) (layer B.Cu) (net 4) (tstamp 58A7A0D7))
  (segment (start 132.08 119.38) (end 127 119.38) (width 2) (layer B.Cu) (net 4) (tstamp 58A7A0BA))
  (segment (start 140.8811 94.8436) (end 140.97 95.25) (width 1) (layer B.Cu) (net 4) (status 80000))
  (segment (start 140.97 95.25) (end 133.35 91.44) (width 2) (layer B.Cu) (net 4) (status 80020))
  (segment (start 133.35 107.95) (end 137.16 107.95) (width 2) (layer B.Cu) (net 6))
  (segment (start 137.5664 99.9236) (end 140.8811 99.9236) (width 2) (layer B.Cu) (net 6) (tstamp 584A62EB))
  (segment (start 137.16 100.33) (end 137.5664 99.9236) (width 1) (layer B.Cu) (net 6) (tstamp 584A62EA))
  (segment (start 137.16 107.95) (end 137.16 100.33) (width 2) (layer B.Cu) (net 6) (tstamp 584A62E9))
  (segment (start 140.97 100.33) (end 140.8811 99.9236) (width 1) (layer F.Cu) (net 6) (tstamp 584A5A10) (status 80000))
  (segment (start 129.54 115.57) (end 129.54 111.76) (width 2) (layer B.Cu) (net 14))
  (segment (start 138.0236 120.2436) (end 140.8811 120.2436) (width 2) (layer B.Cu) (net 14) (tstamp 584A6338))
  (segment (start 137.16 119.38) (end 138.0236 120.2436) (width 2) (layer B.Cu) (net 14) (tstamp 584A6337))
  (segment (start 137.16 111.76) (end 137.16 119.38) (width 2) (layer B.Cu) (net 14) (tstamp 584A6336))
  (segment (start 129.54 111.76) (end 137.16 111.76) (width 2) (layer B.Cu) (net 14) (tstamp 584A6335))
  (segment (start 140.97 120.65) (end 140.8811 120.2436) (width 1) (layer B.Cu) (net 14) (tstamp 584A5A0E) (status 80000))
  (segment (start 156.1211 115.1636) (end 159.1564 115.1636) (width 2) (layer B.Cu) (net 19) (status 400000))
  (segment (start 162.56 111.76) (end 162.56 110.49) (width 2) (layer B.Cu) (net 19) (tstamp 58A7A085) (status 800000))
  (segment (start 159.1564 115.1636) (end 162.56 111.76) (width 2) (layer B.Cu) (net 19) (tstamp 58A7A07E))
  (segment (start 156.1211 115.1636) (end 156.21 115.57) (width 1) (layer B.Cu) (net 19) (status 80000))
  (segment (start 156.1211 112.6236) (end 156.6164 112.6236) (width 2) (layer B.Cu) (net 20) (status C00000))
  (segment (start 156.6164 112.6236) (end 158.75 110.49) (width 2) (layer B.Cu) (net 20) (tstamp 58A7A063) (status 400000))
  (segment (start 158.75 100.33) (end 162.56 96.52) (width 2) (layer B.Cu) (net 20) (tstamp 58A7A06C) (status 800000))
  (segment (start 158.75 110.49) (end 158.75 100.33) (width 2) (layer B.Cu) (net 20) (tstamp 58A7A069))
  (segment (start 156.1211 112.6236) (end 156.21 113.03) (width 1) (layer B.Cu) (net 20) (status 80000))
  (segment (start 134.62 115.57) (end 134.62 120.65) (width 2) (layer B.Cu) (net 27))
  (segment (start 139.7 125.73) (end 148.59 125.73) (width 2) (layer B.Cu) (net 27) (tstamp 584A6348))
  (segment (start 134.62 120.65) (end 139.7 125.73) (width 2) (layer B.Cu) (net 27) (tstamp 584A6346))
  (segment (start 162.56 107.95) (end 166.37 107.95) (width 2) (layer B.Cu) (net 27))
  (segment (start 158.75 125.73) (end 148.59 125.73) (width 2) (layer B.Cu) (net 27) (tstamp 584A630E))
  (segment (start 160.02 124.46) (end 158.75 125.73) (width 2) (layer B.Cu) (net 27) (tstamp 584A630D))
  (segment (start 160.02 118.11) (end 160.02 124.46) (width 2) (layer B.Cu) (net 27) (tstamp 584A630C))
  (segment (start 162.56 118.11) (end 160.02 118.11) (width 2) (layer B.Cu) (net 27) (tstamp 584A630B))
  (segment (start 166.37 114.3) (end 162.56 118.11) (width 2) (layer B.Cu) (net 27) (tstamp 584A630A))
  (segment (start 166.37 107.95) (end 166.37 114.3) (width 2) (layer B.Cu) (net 27) (tstamp 584A6309))
  (segment (start 156.1211 94.8436) (end 159.1564 94.8436) (width 2) (layer B.Cu) (net 27))
  (segment (start 160.02 93.98) (end 162.56 93.98) (width 2) (layer B.Cu) (net 27) (tstamp 584A62BB))
  (segment (start 159.1564 94.8436) (end 160.02 93.98) (width 2) (layer B.Cu) (net 27) (tstamp 584A62BA))
  (segment (start 148.9964 94.8436) (end 156.1211 94.8436) (width 2) (layer B.Cu) (net 27) (tstamp 584A5AE3))
  (segment (start 148.59 95.25) (end 148.9964 94.8436) (width 1) (layer B.Cu) (net 27) (tstamp 584A5AE0))
  (segment (start 148.59 125.73) (end 148.59 95.25) (width 2) (layer B.Cu) (net 27) (tstamp 584A5ADD))
  (segment (start 156.21 95.25) (end 156.1211 94.8436) (width 1) (layer B.Cu) (net 27) (tstamp 584A5A0D) (status 80000))
  (segment (start 162.56 91.44) (end 161.29 90.17) (width 2) (layer B.Cu) (net 29) (status 400000))
  (segment (start 161.29 90.17) (end 156.5275 90.17) (width 2) (layer B.Cu) (net 29) (tstamp 58A7A3AE) (status 800000))
  (segment (start 156.5275 90.17) (end 156.1211 89.7636) (width 2) (layer B.Cu) (net 29) (tstamp 58A7A3B8) (status C00000))
  (segment (start 162.56 91.44) (end 166.37 91.44) (width 2) (layer B.Cu) (net 29) (status 400000))
  (segment (start 166.37 105.41) (end 162.56 105.41) (width 2) (layer B.Cu) (net 29) (tstamp 58A7A34A) (status 800000))
  (segment (start 166.37 91.44) (end 166.37 105.41) (width 2) (layer B.Cu) (net 29) (tstamp 58A7A347))
  (segment (start 156.21 90.17) (end 156.1211 89.7636) (width 1) (layer B.Cu) (net 29) (tstamp 584A5A0F) (status 80000))
  (segment (start 133.35 105.41) (end 133.35 101.6) (width 2) (layer B.Cu) (net 31) (status 10))

)
