=============================================
	SiphonGL AIE 
(Academy of Interactive Entertainment)
	 build
=============================================
The map must be named map.SML the exporter will add the .SML
The splash screen must be called splash.dds
All media should be placed in the data folder.

Bugs and Author
=============================
(C) 2004 SiphonGL Engine
Fabian Mathews
www.siphon.2ya.com

Programming by Fabian Mathews
Art in this sample provided by Bronson Mathews


