Network Init		[OK]
Window Init		[OK]
----------------------------------------
	Input
----------------------------------------
Keyboard			[OK]
Mouse				[OK]
----------------------------------------
Input Init		[OK]
----------------------------------------
	OpenGL Extensions
----------------------------------------
Multitexture			[OK]
Draw Range Element		[OK]
Vertex Buffer Objects		[OK]
Frame Buffer Object		[OK]
Multisample			[OK]
----------------------------------------

Device Init		[OK]
OpenAL Initilised using: Generic Software
new SoundSource	[OK]
new SoundSource	[OK]
new SoundSource	[OK]
new SoundSource	[OK]
new SoundSource	[OK]
new SoundSource	[OK]
new SoundSource	[OK]
new SoundSource	[OK]
new SoundSource	[OK]
new SoundSource	[OK]
new SoundSource	[OK]
new SoundSource	[OK]
new SoundSource	[OK]
new SoundSource	[OK]
new SoundSource	[OK]
new SoundSource	[OK]
Sound Init		[OK]
Loading texture: data/arial.tga
Loading texture: data/five_cents.tga
Loading texture: data/mouse_pointer.tga
Loading texture: data/character.tga
Loading texture: data/five_cents_mouseover.tga
Loading texture: data/LeftKeyboard.tga
Loading texture: data/RightKeyboard.tga
Loading texture: data/Pickups1.tga
Loading texture: data/Pickups2.tga
Loading texture: data/button_right.tga
Loading texture: data/button_generic.tga
Loading texture: data/chess.tga
Loading effect: data/skin.fx
Loading texture: data/character_skin.tga
Loading effect: data/colour_texture_additive_nodepth.fx
Loading texture: data/teammarker.tga
Loading effect: data/plain_texture_additive.fx
Loading texture: data/blob_shadow.tga
Loading sound: data/pickup.wav
Loading sound: data/drop.wav
Loading sound: data/kick.wav
Loading sound: data/Voice_InsaneLaugh.wav
Loading sound: data/Voice_EvilLaugh.wav
Loading effect: data/plain_texture.fx
Loading texture: data/bomb.tga
Loading sound: data/explode01.wav
Loading sound: data/explode02.wav
Loading sound: data/explode03.wav
Loading effect: data/colour_texture_additive.fx
Loading texture: data/explosion_ring.tga
Loading texture: data/explosion_ring_shadow.tga
Loading texture: data/explosion.tga
Loading texture: data/explosion_shadow.tga
Loading effect: data/colour_texture_additive_scrolling.fx
Loading texture: data/fx_death.tga
Game Init		[OK]
