effect relief.fx

pass
{
	; we should also be allowed to use semantic's here
	bumpTexture		normal.dds
	diffuseTexture	diffuse.dds
	parallaxTexture	height.dds

	; <renderTarget>
	vertexformat	position | uvcoord1 | normal | tangent | binormal
}