technique Texture
{
	effect				Flash
	effecttechnique		Texture
	renderorder			0

	pass
	{	
		vertexformat		position
			
		diffuseTexture		Null

		blendenable			true
		sourceblend			srcalpha
		destblend			oneminussrcalpha
	}
}

technique Colour
{
	effect				Flash
	effecttechnique		Colour
	renderorder			0

	pass
	{	
		vertexformat		position

		blendenable			true
		sourceblend			srcalpha
		destblend			oneminussrcalpha
	}
}