technique Default
{
	effect			ui
	renderorder		10

	pass
	{
		vertexformat		position | texcoord0
		diffuseTexture		UI/Mini
		
		cullface			none
		depthcompare		always
		depthtest			false
		depthwrite			false
		blendenable			true
		sourceblend			srcalpha
		destblend			oneminussrcalpha
	}
}
