effect bump.fx

pass
{
	; we should also be allowed to use semantic's here
	bumpTexture		normal.dds
	diffuseTexture	diffuse.dds
	parallaxTexture	height.dds
	specularTexture   light_rt.dds light_lf.dds light_dn.dds light_up.dds light_bk.dds light_fr.dds

	; <renderTarget>
	vertexformat	position | uvcoord1 | normal | tangent | binormal
}