info face="Arial" size=50 bold=0 italic=0 charset="ANSI" stretchH=100 smooth=1 aa=1 padding=0,0,0,0 spacing=1,1
common lineHeight=50 base=40 scaleW=256 scaleH=256 pages=1
char id=33   x=247   y=67    width=4     height=32    xoffset=5     yoffset=8     xadvance=14    page=0 
char id=34   x=40    y=232   width=12    height=11    xoffset=2     yoffset=8     xadvance=16    page=0 
char id=35   x=222   y=67    width=24    height=32    xoffset=0     yoffset=8     xadvance=24    page=0 
char id=36   x=124   y=0     width=20    height=38    xoffset=2     yoffset=6     xadvance=24    page=0 
char id=37   x=44    y=42    width=34    height=32    xoffset=2     yoffset=8     xadvance=39    page=0 
char id=38   x=88    y=75    width=26    height=32    xoffset=2     yoffset=8     xadvance=29    page=0 
char id=39   x=94    y=231   width=4     height=11    xoffset=2     yoffset=8     xadvance=8     page=0 
char id=40   x=68    y=0     width=11    height=41    xoffset=3     yoffset=8     xadvance=15    page=0 
char id=41   x=80    y=0     width=11    height=41    xoffset=1     yoffset=8     xadvance=15    page=0 
char id=42   x=240   y=192   width=15    height=13    xoffset=1     yoffset=8     xadvance=17    page=0 
char id=43   x=173   y=196   width=22    height=22    xoffset=2     yoffset=14    xadvance=26    page=0 
char id=44   x=99    y=231   width=4     height=11    xoffset=4     yoffset=36    xadvance=12    page=0 
char id=45   x=176   y=219   width=12    height=4     xoffset=1     yoffset=27    xadvance=15    page=0 
char id=46   x=189   y=219   width=4     height=4     xoffset=4     yoffset=36    xadvance=12    page=0 
char id=47   x=241   y=100   width=12    height=32    xoffset=0     yoffset=8     xadvance=12    page=0 
char id=48   x=44    y=141   width=20    height=32    xoffset=2     yoffset=8     xadvance=24    page=0 
char id=49   x=90    y=174   width=11    height=32    xoffset=5     yoffset=8     xadvance=24    page=0 
char id=50   x=65    y=141   width=20    height=32    xoffset=1     yoffset=8     xadvance=24    page=0 
char id=51   x=86    y=141   width=20    height=32    xoffset=2     yoffset=8     xadvance=24    page=0 
char id=52   x=197   y=101   width=21    height=32    xoffset=1     yoffset=8     xadvance=24    page=0 
char id=53   x=107   y=141   width=20    height=32    xoffset=2     yoffset=8     xadvance=24    page=0 
char id=54   x=219   y=101   width=21    height=32    xoffset=1     yoffset=8     xadvance=24    page=0 
char id=55   x=128   y=141   width=20    height=32    xoffset=2     yoffset=8     xadvance=24    page=0 
char id=56   x=149   y=138   width=20    height=32    xoffset=2     yoffset=8     xadvance=24    page=0 
char id=57   x=170   y=138   width=20    height=32    xoffset=2     yoffset=8     xadvance=24    page=0 
char id=58   x=251   y=167   width=4     height=23    xoffset=4     yoffset=17    xadvance=12    page=0 
char id=59   x=129   y=174   width=4     height=30    xoffset=4     yoffset=17    xadvance=12    page=0 
char id=60   x=196   y=196   width=21    height=21    xoffset=2     yoffset=14    xadvance=26    page=0 
char id=61   x=18    y=232   width=21    height=13    xoffset=2     yoffset=18    xadvance=26    page=0 
char id=62   x=218   y=196   width=21    height=21    xoffset=2     yoffset=14    xadvance=26    page=0 
char id=63   x=191   y=138   width=20    height=32    xoffset=2     yoffset=8     xadvance=24    page=0 
char id=64   x=0     y=0     width=41    height=41    xoffset=2     yoffset=8     xadvance=45    page=0 
char id=65   x=110   y=42    width=29    height=32    xoffset=0     yoffset=8     xadvance=29    page=0 
char id=66   x=125   y=108   width=23    height=32    xoffset=4     yoffset=8     xadvance=29    page=0 
char id=67   x=30    y=75    width=28    height=32    xoffset=2     yoffset=8     xadvance=32    page=0 
char id=68   x=115   y=75    width=26    height=32    xoffset=4     yoffset=8     xadvance=32    page=0 
char id=69   x=149   y=105   width=23    height=32    xoffset=4     yoffset=8     xadvance=29    page=0 
char id=70   x=0     y=141   width=21    height=32    xoffset=4     yoffset=8     xadvance=27    page=0 
char id=71   x=140   y=39    width=29    height=32    xoffset=2     yoffset=8     xadvance=34    page=0 
char id=72   x=0     y=108   width=24    height=32    xoffset=4     yoffset=8     xadvance=32    page=0 
char id=73   x=102   y=174   width=4     height=32    xoffset=4     yoffset=8     xadvance=12    page=0 
char id=74   x=59    y=174   width=17    height=32    xoffset=1     yoffset=8     xadvance=22    page=0 
char id=75   x=142   y=72    width=26    height=32    xoffset=4     yoffset=8     xadvance=29    page=0 
char id=76   x=0     y=174   width=19    height=32    xoffset=4     yoffset=8     xadvance=24    page=0 
char id=77   x=170   y=35    width=29    height=32    xoffset=4     yoffset=8     xadvance=37    page=0 
char id=78   x=25    y=108   width=24    height=32    xoffset=4     yoffset=8     xadvance=32    page=0 
char id=79   x=79    y=42    width=30    height=32    xoffset=2     yoffset=8     xadvance=34    page=0 
char id=80   x=173   y=105   width=23    height=32    xoffset=4     yoffset=8     xadvance=29    page=0 
char id=81   x=145   y=0     width=30    height=34    xoffset=2     yoffset=8     xadvance=34    page=0 
char id=82   x=169   y=72    width=26    height=32    xoffset=4     yoffset=8     xadvance=32    page=0 
char id=83   x=230   y=34    width=25    height=32    xoffset=2     yoffset=8     xadvance=29    page=0 
char id=84   x=50    y=108   width=24    height=32    xoffset=1     yoffset=8     xadvance=26    page=0 
char id=85   x=75    y=108   width=24    height=32    xoffset=4     yoffset=8     xadvance=32    page=0 
char id=86   x=200   y=34    width=29    height=32    xoffset=0     yoffset=8     xadvance=29    page=0 
char id=87   x=0     y=42    width=43    height=32    xoffset=1     yoffset=8     xadvance=44    page=0 
char id=88   x=0     y=75    width=29    height=32    xoffset=0     yoffset=8     xadvance=29    page=0 
char id=89   x=59    y=75    width=28    height=32    xoffset=0     yoffset=8     xadvance=28    page=0 
char id=90   x=196   y=68    width=25    height=32    xoffset=1     yoffset=8     xadvance=27    page=0 
char id=91   x=102   y=0     width=8     height=41    xoffset=3     yoffset=8     xadvance=12    page=0 
char id=92   x=77    y=174   width=12    height=32    xoffset=1     yoffset=8     xadvance=12    page=0 
char id=93   x=111   y=0     width=8     height=41    xoffset=1     yoffset=8     xadvance=12    page=0 
char id=94   x=0     y=232   width=17    height=17    xoffset=1     yoffset=8     xadvance=19    page=0 
char id=95   x=150   y=229   width=25    height=4     xoffset=-1    yoffset=45    xadvance=24    page=0 
char id=96   x=141   y=229   width=8     height=6     xoffset=2     yoffset=8     xadvance=15    page=0 
char id=97   x=167   y=171   width=20    height=24    xoffset=2     yoffset=16    xadvance=24    page=0 
char id=98   x=212   y=134   width=20    height=32    xoffset=3     yoffset=8     xadvance=25    page=0 
char id=99   x=188   y=171   width=20    height=24    xoffset=2     yoffset=16    xadvance=22    page=0 
char id=100  x=233   y=134   width=20    height=32    xoffset=2     yoffset=8     xadvance=24    page=0 
char id=101  x=209   y=171   width=20    height=24    xoffset=2     yoffset=16    xadvance=24    page=0 
char id=102  x=239   y=0     width=13    height=32    xoffset=1     yoffset=8     xadvance=13    page=0 
char id=103  x=176   y=0     width=20    height=33    xoffset=2     yoffset=16    xadvance=25    page=0 
char id=104  x=40    y=174   width=18    height=32    xoffset=3     yoffset=8     xadvance=24    page=0 
char id=105  x=107   y=174   width=4     height=32    xoffset=3     yoffset=8     xadvance=10    page=0 
char id=106  x=92    y=0     width=9     height=41    xoffset=-2    yoffset=8     xadvance=10    page=0 
char id=107  x=20    y=174   width=19    height=32    xoffset=3     yoffset=8     xadvance=22    page=0 
char id=108  x=112   y=174   width=4     height=32    xoffset=3     yoffset=8     xadvance=10    page=0 
char id=109  x=134   y=174   width=32    height=24    xoffset=3     yoffset=16    xadvance=38    page=0 
char id=110  x=0     y=207   width=18    height=24    xoffset=3     yoffset=16    xadvance=24    page=0 
char id=111  x=230   y=167   width=20    height=24    xoffset=2     yoffset=16    xadvance=24    page=0 
char id=112  x=197   y=0     width=20    height=33    xoffset=3     yoffset=16    xadvance=25    page=0 
char id=113  x=218   y=0     width=20    height=33    xoffset=2     yoffset=16    xadvance=25    page=0 
char id=114  x=38    y=207   width=13    height=24    xoffset=3     yoffset=16    xadvance=15    page=0 
char id=115  x=19    y=207   width=18    height=24    xoffset=2     yoffset=16    xadvance=22    page=0 
char id=116  x=117   y=174   width=11    height=31    xoffset=1     yoffset=9     xadvance=12    page=0 
char id=117  x=154   y=199   width=18    height=23    xoffset=3     yoffset=17    xadvance=24    page=0 
char id=118  x=111   y=207   width=21    height=23    xoffset=1     yoffset=17    xadvance=23    page=0 
char id=119  x=52    y=207   width=35    height=23    xoffset=-1    yoffset=17    xadvance=33    page=0 
char id=120  x=88    y=207   width=22    height=23    xoffset=0     yoffset=17    xadvance=22    page=0 
char id=121  x=22    y=141   width=21    height=32    xoffset=0     yoffset=17    xadvance=21    page=0 
char id=122  x=133   y=205   width=20    height=23    xoffset=1     yoffset=17    xadvance=22    page=0 
char id=123  x=42    y=0     width=12    height=41    xoffset=1     yoffset=8     xadvance=15    page=0 
char id=124  x=120   y=0     width=3     height=41    xoffset=4     yoffset=8     xadvance=11    page=0 
char id=125  x=55    y=0     width=12    height=41    xoffset=2     yoffset=8     xadvance=15    page=0 
char id=126  x=104   y=231   width=22    height=8     xoffset=2     yoffset=21    xadvance=26    page=0 
char id=128  x=100   y=108   width=24    height=32    xoffset=-1    yoffset=8     xadvance=24    page=0 
char id=130  x=76    y=231   width=5     height=11    xoffset=2     yoffset=36    xadvance=10    page=0 
char id=145  x=82    y=231   width=5     height=11    xoffset=3     yoffset=8     xadvance=10    page=0 
char id=146  x=88    y=231   width=5     height=11    xoffset=2     yoffset=8     xadvance=10    page=0 
char id=147  x=65    y=231   width=10    height=11    xoffset=2     yoffset=8     xadvance=15    page=0 
char id=148  x=53    y=231   width=11    height=11    xoffset=1     yoffset=8     xadvance=15    page=0 
char id=152  x=127   y=231   width=13    height=6     xoffset=0     yoffset=8     xadvance=13    page=0 
kerning first=49  second=49  amount=-3  
kerning first=65  second=84  amount=-3  
kerning first=65  second=86  amount=-3  
kerning first=65  second=87  amount=-2  
kerning first=65  second=89  amount=-3  
kerning first=65  second=118 amount=-1  
kerning first=65  second=119 amount=-1  
kerning first=65  second=121 amount=-1  
kerning first=65  second=146 amount=-3  
kerning first=70  second=44  amount=-5  
kerning first=70  second=46  amount=-5  
kerning first=70  second=65  amount=-2  
kerning first=76  second=84  amount=-3  
kerning first=76  second=86  amount=-3  
kerning first=76  second=87  amount=-3  
kerning first=76  second=89  amount=-3  
kerning first=76  second=121 amount=-2  
kerning first=76  second=146 amount=-2  
kerning first=80  second=44  amount=-6  
kerning first=80  second=46  amount=-6  
kerning first=80  second=65  amount=-3  
kerning first=82  second=84  amount=-1  
kerning first=82  second=86  amount=-1  
kerning first=82  second=87  amount=-1  
kerning first=82  second=89  amount=-1  
kerning first=84  second=44  amount=-5  
kerning first=84  second=45  amount=-2  
kerning first=84  second=46  amount=-5  
kerning first=84  second=58  amount=-5  
kerning first=84  second=59  amount=-5  
kerning first=84  second=65  amount=-3  
kerning first=84  second=79  amount=-1  
kerning first=84  second=97  amount=-5  
kerning first=84  second=99  amount=-5  
kerning first=84  second=101 amount=-5  
kerning first=84  second=105 amount=-2  
kerning first=84  second=111 amount=-5  
kerning first=84  second=114 amount=-2  
kerning first=84  second=115 amount=-5  
kerning first=84  second=117 amount=-2  
kerning first=84  second=119 amount=-2  
kerning first=84  second=121 amount=-2  
kerning first=86  second=44  amount=-4  
kerning first=86  second=45  amount=-2  
kerning first=86  second=46  amount=-4  
kerning first=86  second=58  amount=-2  
kerning first=86  second=59  amount=-2  
kerning first=86  second=65  amount=-3  
kerning first=86  second=97  amount=-3  
kerning first=86  second=101 amount=-2  
kerning first=86  second=105 amount=-1  
kerning first=86  second=111 amount=-2  
kerning first=86  second=114 amount=-2  
kerning first=86  second=117 amount=-2  
kerning first=86  second=121 amount=-2  
kerning first=87  second=44  amount=-2  
kerning first=87  second=45  amount=-1  
kerning first=87  second=46  amount=-2  
kerning first=87  second=58  amount=-1  
kerning first=87  second=59  amount=-1  
kerning first=87  second=65  amount=-2  
kerning first=87  second=97  amount=-2  
kerning first=87  second=101 amount=-1  
kerning first=87  second=111 amount=-1  
kerning first=87  second=114 amount=-1  
kerning first=87  second=117 amount=-1  
kerning first=89  second=44  amount=-6  
kerning first=89  second=45  amount=-4  
kerning first=89  second=46  amount=-6  
kerning first=89  second=58  amount=-2  
kerning first=89  second=59  amount=-3  
kerning first=89  second=65  amount=-3  
kerning first=89  second=97  amount=-3  
kerning first=89  second=101 amount=-4  
kerning first=89  second=105 amount=-2  
kerning first=89  second=111 amount=-4  
kerning first=89  second=112 amount=-3  
kerning first=89  second=113 amount=-4  
kerning first=89  second=117 amount=-2  
kerning first=89  second=118 amount=-2  
kerning first=102 second=102 amount=-1  
kerning first=102 second=146 amount=1   
kerning first=114 second=44  amount=-2  
kerning first=114 second=46  amount=-2  
kerning first=114 second=146 amount=2   
kerning first=118 second=44  amount=-3  
kerning first=118 second=46  amount=-3  
kerning first=119 second=44  amount=-2  
kerning first=119 second=46  amount=-2  
kerning first=121 second=44  amount=-3  
kerning first=121 second=46  amount=-3  
kerning first=145 second=145 amount=-1  
kerning first=146 second=115 amount=-1  
kerning first=146 second=146 amount=-1  
kerning first=71  second=44  amount=-5  
kerning first=71  second=46  amount=-5  
kerning first=100 second=116 amount=-1  
kerning first=100 second=112 amount=-1  
kerning first=116 second=97  amount=-1  
kerning first=116 second=100 amount=-1  
kerning first=116 second=115 amount=-1  
kerning first=116 second=102 amount=-1  
kerning first=102 second=116 amount=-1  
kerning first=102 second=112 amount=-1  
kerning first=83  second=116 amount=-2  
kerning first=83  second=112 amount=-2  
kerning first=112 second=97  amount=-1  
kerning first=112 second=115 amount=-1  
kerning first=112 second=102 amount=-1  
